Spa_defence_traces/5correct.csv

#Digilent WaveForms Oscilloscope Acquisition
#Device Name: Discovery2
#Serial Number: SN:210321A364CE
#Date Time: 2026-05-11 13:37:54.264
#Sample rate: 1e+08Hz
#Samples: 8192
#Trigger: Source: Channel 2 Type: Edge Condition: Rising Level: 1.75 V Hyst.: Auto HoldOff: 0 s
#Channel 1: Range: 50 mV/div Offset: -4.525 V Sample Mode: Average
#Channel 2: Range: 500 mV/div Offset: 350 mV Sample Mode: Average
#Wavegen Channel 1: Running
#Mode: Simple
#Type: Square
#Frequency: 16 MHz
#Period: 62.5 ns
#Amplitude: 2.5 V
#Offset: 2.5 V
#Symmetry: 50 %
#Phase: 0 °

Time (s),Channel 1 (V),Channel 2 (V)
-2.39509558117195e-05,4.588529599818811,0.1006162855968633
-2.39409558117195e-05,4.547570512041414,0.07098848670028579
-2.39309558117195e-05,4.512887413520226,0.1315756709607012
-2.39209558117195e-05,4.501656695903853,0.1282467047925495
-2.39109558117195e-05,4.551864609953561,0.1625350563245421
-2.39009558117195e-05,4.499344489335769,0.1365691202129349
-2.38909558117195e-05,4.53072443561684,0.1016149754473097
-2.38809558117195e-05,4.475892108430995,0.09329256002692661
-2.38709558117195e-05,4.506611424264017,0.1259164284748396
-2.38609558117195e-05,4.519163402776445,0.1232532555403158
-2.38509558117195e-05,4.581592980114574,0.1598718833900183
-2.38409558117195e-05,4.504299217695955,0.1335730506615802
-2.38309558117195e-05,4.541624838009211,0.09961759574641688
-2.38209558117195e-05,4.471267695294812,0.09695442281189309
-2.38109558117195e-05,4.493729130527578,0.1265822217084706
-2.38009558117195e-05,4.502317326351901,0.1315756709607162
-2.37909558117195e-05,4.568710686378105,0.1612034698572667
-2.37809558117195e-05,4.496371652319668,0.1329072574279647
-2.37709558117195e-05,4.542285468457234,0.1009491822136788
-2.37609558117195e-05,4.474570847534941,0.09295966341012038
-2.37509558117195e-05,4.509914576504114,0.1215887724562254
-2.37409558117195e-05,4.523457500688592,0.1149308401199289
-2.37309558117195e-05,4.552525240401582,0.1212558758394229
-2.37209558117195e-05,4.559131544881808,0.1728548514458219
-2.37109558117195e-05,4.551203979505542,0.1089387010172793
-2.37009558117195e-05,4.590511491162878,0.09861890589597044
-2.36909558117195e-05,4.550213033833504,0.07098848670028579
-2.36809558117195e-05,4.525439392032659,0.127580911558917
-2.36709558117195e-05,4.532706326960927,0.1202571859889941
-2.36609558117195e-05,4.576307936530394,0.1588731935395719
-2.36509558117195e-05,4.52576970725667,0.127580911558917
-2.36409558117195e-05,4.55714965353774,0.09728731942870855
-2.36309558117195e-05,4.495711021871665,0.08929780062514921
-2.36209558117195e-05,4.538321685769079,0.1159295299703632
-2.36109558117195e-05,4.553516186073616,0.1175940130544527
-2.36009558117195e-05,4.608678828483497,0.1522152612032623
-2.35909558117195e-05,4.532045696512901,0.126582221708456
-2.35809558117195e-05,4.567059110258063,0.09462414649419924
-2.35709558117195e-05,4.500335435007803,0.09229387017647639
-2.35609558117195e-05,4.544927990249324,0.1106031841013276
-2.35509558117195e-05,4.556158707865706,0.1219216690730539
-2.35409558117195e-05,4.610330404603529,0.1492191916519106
-2.35309558117195e-05,4.531715381288874,0.1252506352412087
-2.35209558117195e-05,4.568710686378135,0.09828600927915498
-2.35109558117195e-05,4.490095663063454,0.09029649047558352
-2.35009558117195e-05,4.509253946056112,0.1242519453907575
-2.34909558117195e-05,4.519824033224467,0.1139321502694824
-2.34809558117195e-05,4.547900827265425,0.1242519453907622
-2.34709558117195e-05,4.558140599209774,0.1728548514458219
-2.34609558117195e-05,4.550543349057534,0.1092715976340615
-2.34509558117195e-05,4.590841806386889,0.09995049236323239
-2.34409558117195e-05,4.550873664281527,0.0696569002330239
-2.34309558117195e-05,4.535679163977008,0.1265822217084706
-2.34209558117195e-05,4.532045696512903,0.1209229792226249
-2.34109558117195e-05,4.572013838618229,0.1592060901563699
-2.34009558117195e-05,4.525109076808648,0.1289124980261789
-2.33909558117195e-05,4.55450713174565,0.09762021604552401
-2.33809558117195e-05,4.49967480455978,0.08929780062513709
-2.33709558117195e-05,4.552525240401558,0.1132663570358406
-2.33609558117195e-05,4.558470914433785,0.1172611164376372
-2.33509558117195e-05,4.611321350275587,0.1508836747360004
-2.33409558117195e-05,4.544267359801301,0.1245848420075777
-2.33309558117195e-05,4.57862014309844,0.09129518032602814
-2.33209558117195e-05,4.505950793815995,0.08730042092424423
-2.33109558117195e-05,4.516851196208366,0.120590082605792
-2.33009558117195e-05,4.513878359192265,0.1315756709607027
-2.32909558117195e-05,4.575647306082339,0.1565429172218528
-2.32809558117195e-05,4.504959848143961,0.1329072574279647
-2.32709558117195e-05,4.547570512041414,0.09995049236323239
-2.32609558117195e-05,4.480846836791138,0.09429124987736925
-2.32509558117195e-05,4.48646219559933,0.1272480149421005
-2.32409558117195e-05,4.486792510823341,0.1249177386243943
-2.32309558117195e-05,4.519493718000456,0.127580911558917
-2.32209558117195e-05,4.529403174720795,0.1805114736325779
-2.32109558117195e-05,4.523457500688592,0.1152637367367443
-2.32009558117195e-05,4.569041001602126,0.1049439416154692
-2.31909558117195e-05,4.531385066064862,0.07498324610207152
-2.31809558117195e-05,4.538321685769098,0.1249177386243932
-2.31709558117195e-05,4.555498077417684,0.1165953232040062
-2.31609558117195e-05,4.59579653474704,0.1535468476705075
-2.31509558117195e-05,4.540964207561188,0.1249177386243932
-2.31409558117195e-05,4.564416588465988,0.09695442281189309
-2.31309558117195e-05,4.499014174111758,0.0879662141578752
-2.31209558117195e-05,4.50396890247193,0.1275809115589156
-2.31109558117195e-05,4.511235837400175,0.1245848420075777
-2.31009558117195e-05,4.576307936530394,0.1588731935395719
-2.30909558117195e-05,4.505290163367972,0.1335730506615956
-2.30809558117195e-05,4.544267359801273,0.09961759574641416
-2.30709558117195e-05,4.481177152015178,0.093625456643741
-2.30609558117195e-05,4.524118131136614,0.1185927029048991
-2.30509558117195e-05,4.545918935921358,0.1219216690730539
-2.30409558117195e-05,4.603393784899281,0.152881054436882
-2.30309558117195e-05,4.522466555016594,0.1282467047925592
-2.30209558117195e-05,4.555167762193673,0.09961759574641688
-2.30109558117195e-05,4.482498412911195,0.09129518032602996
-2.30009558117195e-05,4.480846836791138,0.1305769811102563
-2.29909558117195e-05,4.492407869631528,0.1212558758394272
-2.29809558117195e-05,4.528081913824749,0.1292453946429944
-2.29709558117195e-05,4.532706326960907,0.1811772668662089
-2.29609558117195e-05,4.528081913824749,0.1132663570358515
-2.29509558117195e-05,4.569371316826141,0.1039452517650045
-2.29409558117195e-05,4.532376011736896,0.07398455625162509
-2.29309558117195e-05,4.533697272632941,0.1242519453907622
-2.29209558117195e-05,4.551534294729549,0.1169282198208217
-2.29109558117195e-05,4.590181175938841,0.1542126409041434
-2.29009558117195e-05,4.533366957408956,0.1282467047925598
-2.28909558117195e-05,4.559131544881808,0.09595573296144666
-2.28809558117195e-05,4.494389760975601,0.09062938709239898
-2.28709558117195e-05,4.497362597991708,0.129245394642992
-2.28609558117195e-05,4.509584261280113,0.1239190487739492
-2.28509558117195e-05,4.571683523394236,0.1615363664740957
-2.28409558117195e-05,4.499344489335769,0.135237533745673
-2.28309558117195e-05,4.539973261889155,0.09895180251278596
-2.28209558117195e-05,4.475561793206988,0.09329256002692539
-2.28109558117195e-05,4.51519962008831,0.119924289372161
-2.28009558117195e-05,4.536009479201019,0.1232532555403158
-2.27909558117195e-05,4.596787480419092,0.1558771239882326
-2.27809558117195e-05,4.517511826656405,0.1275809115589044
-2.27709558117195e-05,4.553846501297627,0.09995049236323239
-2.27609558117195e-05,4.478204314999049,0.0939583532605538
-2.27509558117195e-05,4.478204314999049,0.1325743608111492
-2.27409558117195e-05,4.491416923959513,0.1202571859889816
-2.27309558117195e-05,4.521145294120499,0.1315756709606976
-2.27209558117195e-05,4.528081913824749,0.1801785770157625
-2.27109558117195e-05,4.523787815912603,0.1149308401199289
-2.27009558117195e-05,4.567719740706084,0.1059426314658974
-2.26909558117195e-05,4.529733489944823,0.07598193595253164
-2.26809558117195e-05,4.533036642184919,0.1255835318580241
-2.26709558117195e-05,4.549882718609493,0.1165953232040062
-2.26609558117195e-05,4.591832752058923,0.1538797442873397
-2.26509558117195e-05,4.536339794425055,0.1252506352412217
-2.26409558117195e-05,4.563755958017966,0.09595573296144666
-2.26309558117195e-05,4.501987011127859,0.0879662141578752
-2.26209558117195e-05,4.522136239792546,0.1232532555403158
-2.26109558117195e-05,4.530724435616867,0.1202571859889932
-2.26009558117195e-05,4.5911721216109,0.156875813838679
-2.25909558117195e-05,4.520154348448479,0.128246704792548
-2.25809558117195e-05,4.555828392641695,0.09695442281189309
-2.25709558117195e-05,4.490756293511497,0.09129518032604025
-2.25609558117195e-05,4.536009479200999,0.1139321502694721
-2.25509558117195e-05,4.555828392641695,0.1209229792226075
-2.25409558117195e-05,4.608018198035475,0.1512165713528159
-2.25309558117195e-05,4.528081913824765,0.1259164284748275
-2.25209558117195e-05,4.563425642793939,0.09928469912961353
-2.25109558117195e-05,4.487453141271364,0.0909622837092145
-2.25009558117195e-05,4.485471249927296,0.1309098777270718
-2.24909558117195e-05,4.494720076199612,0.1195913927553455
-2.24809558117195e-05,4.530394120392812,0.1262493250916521
-2.24709558117195e-05,4.535679163977008,0.1805114736325779
-2.24609558117195e-05,4.531715381288874,0.1132663570358515
-2.24509558117195e-05,4.573335099514292,0.1026136652977562
-2.24409558117195e-05,4.536339794425036,0.07365165963483082
-2.24309558117195e-05,4.547240196817403,0.1202571859889765
-2.24209558117195e-05,4.565737849362034,0.1145979435031134
-2.24109558117195e-05,4.602733154451295,0.1508836747360004
-2.24009558117195e-05,4.547570512041426,0.1232532555403023
-2.23909558117195e-05,4.573335099514292,0.09362545664373828
-2.23809558117195e-05,4.510905522176164,0.08730042092424423
-2.23709558117195e-05,4.554176816521639,0.1126005638022205
-2.23609558117195e-05,4.564416588466012,0.1139321502694988
-2.23509558117195e-05,4.6152851329637,0.1498849848855377
-2.23409558117195e-05,4.539312631441132,0.1225874623066848
-2.23309558117195e-05,4.570362262498191,0.09229387017647639
-2.23209558117195e-05,4.495050391423623,0.08996359385876807
-2.23109558117195e-05,4.510575206952145,0.1229203589234854
-2.23009558117195e-05,4.525439392032659,0.1242519453907622
-2.22909558117195e-05,4.586217393250732,0.1578745036891255
-2.22809558117195e-05,4.51255709829622,0.128246704792548
-2.22709558117195e-05,4.555498077417654,0.09928469912959703
-2.22609558117195e-05,4.48910471739142,0.08963069724195255
-2.22509558117195e-05,4.512887413520231,0.1185927029048991
-2.22409558117195e-05,4.51519962008831,0.1189255995217146
-2.22309558117195e-05,4.542946098905261,0.1212558758394479
-2.22209558117195e-05,4.55450713174565,0.1761838176139767
-2.22109558117195e-05,4.545918935921358,0.1082729077836193
-2.22009558117195e-05,4.586878023698755,0.09928469912960142
-2.21909558117195e-05,4.54757051204141,0.07098848670030834
-2.21809558117195e-05,4.539312631441136,0.1205900826057694
-2.21709558117195e-05,4.548891772937459,0.1179269096712682
-2.21609558117195e-05,4.5911721216109,0.1518823645864469
-2.21509558117195e-05,4.537330740097064,0.1272480149421015
-2.21409558117195e-05,4.563095327569932,0.09429124987738424
-2.21309558117195e-05,4.492077554407522,0.08963069724195255
-2.21209558117195e-05,4.461688553798485,0.1412296728483516
-2.21109558117195e-05,4.464000760366564,0.1319085675775182
-2.21009558117195e-05,4.538982316217087,0.170524575128096
-2.20909558117195e-05,4.466643282158654,0.1402309829979052
-2.20809558117195e-05,4.508263000384074,0.1066084246995419
-2.20709558117195e-05,4.451448781854136,0.09995049236323239
-2.20609558117195e-05,4.477213369327023,0.128912498026181
-2.20509558117195e-05,4.494059445751589,0.1335730506615956
-2.20409558117195e-05,4.563755958017966,0.1612034698572802
-2.20309558117195e-05,4.483159043359217,0.135903326979304
-2.20209558117195e-05,4.520484663672456,0.1079400111667996
-2.20109558117195e-05,4.445833423045978,0.09861890589597468
-2.20009558117195e-05,4.429978292293404,0.1445586390165063
-2.19909558117195e-05,4.43922711856572,0.1329072574279647
-2.19809558117195e-05,4.481837782463176,0.1379007066802206
-2.19709558117195e-05,4.490425978287462,0.190165475520203
-2.19609558117195e-05,4.487122826047353,0.1239190487739468
-2.19509558117195e-05,4.531054750840851,0.112267667185405
-2.19409558117195e-05,4.498683858887746,0.08263986828882752
-2.19309558117195e-05,4.518502772328413,0.1269151183252659
-2.19209558117195e-05,4.531054750840851,0.1242519453907622
-2.19109558117195e-05,4.575647306082371,0.1552113307546016
-2.19009558117195e-05,4.523457500688592,0.1312427743438873
-2.18909558117195e-05,4.5538465012976,0.09562283634462902
-2.18809558117195e-05,4.492738184855544,0.0909622837092145
-2.18709558117195e-05,4.503638587247916,0.1255835318580241
-2.18609558117195e-05,4.509253946056107,0.1259164284748396
-2.18509558117195e-05,4.572674469066237,0.1595389867731917
-2.18409558117195e-05,4.500665750231847,0.1349046371288687
-2.18309558117195e-05,4.540303577113166,0.1009491822136788
-2.18209558117195e-05,4.480846836791138,0.09329256002692282
-2.18109558117195e-05,4.534027587856957,0.1162624265871952
-2.18009558117195e-05,4.543937044577286,0.1259164284748353
-2.17909558117195e-05,4.599430002211182,0.1532139510537087
-2.17809558117195e-05,4.529403174720795,0.1265822217084706
-2.17709558117195e-05,4.567719740706101,0.09728731942870855
-2.17609558117195e-05,4.496701967543712,0.08763331754106407
-2.17509558117195e-05,4.502977956799893,0.1242519453907622
-2.17409558117195e-05,4.505620478591983,0.1185927029048991
-2.17309558117195e-05,4.537991370545087,0.1232532555403158
-2.17209558117195e-05,4.547240196817399,0.1775154040812086
-2.17109558117195e-05,4.540303577113166,0.1112689773349586
-2.17009558117195e-05,4.582253610562597,0.1009491822136788
-2.16909558117195e-05,4.544267359801301,0.07198717655073222
-2.16809558117195e-05,4.548891772937465,0.1195913927553437
-2.16709558117195e-05,4.563425642793948,0.1155966333535616
-2.16609558117195e-05,4.599760317435194,0.1525481578200778
-2.16509558117195e-05,4.546909881593391,0.1225874623066848
-2.16409558117195e-05,4.573665414738273,0.09295966341010403
-2.16309558117195e-05,4.506941739488059,0.08563593784017015
-2.16209558117195e-05,4.494059445751589,0.1319085675775182
-2.16109558117195e-05,4.500665750231814,0.1272480149421015
-2.16009558117195e-05,4.565407534138022,0.1625350563245421
-2.15909558117195e-05,4.492407869631566,0.1352375337456854
-2.15809558117195e-05,4.535018533528985,0.1016149754473097
-2.15709558117195e-05,4.474570847534925,0.09595573296144666
-2.15609558117195e-05,4.506611424264017,0.1222545656898694
-2.15509558117195e-05,4.525439392032687,0.1275809115589299
-2.15409558117195e-05,4.586217393250732,0.1558771239882326
-2.15309558117195e-05,4.508593315608085,0.1325743608111492
-2.15209558117195e-05,4.548561457713448,0.1012820788304943
-2.15109558117195e-05,4.471267695294814,0.09595573296146377
-2.15009558117195e-05,4.474240532310912,0.1335730506615785
-2.14909558117195e-05,4.486792510823341,0.1209229792226075
-2.14809558117195e-05,4.524448446360625,0.1289124980261789
-2.14709558117195e-05,4.530063805168815,0.1828417499502556
-2.14609558117195e-05,4.525769707256672,0.1155966333535904
-2.14509558117195e-05,4.569371316826158,0.1036123551482026
-2.14409558117195e-05,4.532376011736896,0.07598193595251801
-2.14309558117195e-05,4.545588620697346,0.1215887724562384
-2.14209558117195e-05,4.553185870849601,0.1172611164376392
-2.14109558117195e-05,4.588859915042821,0.1545455375209707
-2.14009558117195e-05,4.541955153233222,0.1232532555403158
-2.13909558117195e-05,4.570692577722202,0.0939583532605538
-2.13809558117195e-05,4.500005119783792,0.08829911077470944
-2.13709558117195e-05,4.501987011127859,0.1295782912598099
-2.13609558117195e-05,4.516520880984355,0.1219216690730539
-2.13509558117195e-05,4.580271719218529,0.1585402969227564
-2.13409558117195e-05,4.507602369936069,0.1329072574279492
-2.13309558117195e-05,4.547240196817403,0.09895180251278596
-2.13209558117195e-05,4.486792510823341,0.0939583532605538
-2.13109558117195e-05,4.53865200099311,0.1135992536526669
-2.13009558117195e-05,4.546249251145394,0.1259164284748512
-2.12909558117195e-05,4.600751263107203,0.1512165713528044
-2.12809558117195e-05,4.531054750840851,0.1262493250916551
-2.12709558117195e-05,4.57003194727418,0.09662152619507758
-2.12609558117195e-05,4.500005119783792,0.08896490400832163
-2.12509558117195e-05,4.521475609344514,0.117926909671255
-2.12409558117195e-05,4.520154348448479,0.1175940130544527
-2.12309558117195e-05,4.54922208816147,0.1222545656898694
-2.12209558117195e-05,4.55714965353774,0.1738535412962684
-2.12109558117195e-05,4.549552403385485,0.1089387010172798
-2.12009558117195e-05,4.592163067282934,0.09895180251278596
-2.11909558117195e-05,4.552194925177572,0.06932400361620844
-2.11809558117195e-05,4.553516186073616,0.1195913927553455
-2.11709558117195e-05,4.563755958017983,0.1145979435031297
-2.11609558117195e-05,4.601742208779261,0.1505507781191849
-2.11509558117195e-05,4.54922208816147,0.1232532555403158
-2.11409558117195e-05,4.575977621306382,0.09229387017647639
-2.11309558117195e-05,4.505290163367961,0.08730042092426678
-2.11209558117195e-05,4.481507467239171,0.1369020168297278
-2.11109558117195e-05,4.487783456495375,0.1299111878766254
-2.11009558117195e-05,4.555167762193673,0.1635337461749886
-2.10909558117195e-05,4.484810619479274,0.1395651897642742
-2.10809558117195e-05,4.525109076808629,0.1039452517650343
-2.10709558117195e-05,4.46565233648662,0.09528993972781569
-2.10609558117195e-05,4.493398815303567,0.1272480149421015
-2.10509558117195e-05,4.511896467848198,0.1292453946429944
-2.10409558117195e-05,4.576307936530364,0.1582074003059278
-2.10309558117195e-05,4.497362597991702,0.1339059472784111
-2.10209558117195e-05,4.541624838009211,0.1036123551482026
-2.10109558117195e-05,4.460367292902441,0.09595573296144666
-2.10009558117195e-05,4.436584596773634,0.1435599491660536
-2.09909558117195e-05,4.446163738269956,0.1295782912598099
-2.09809558117195e-05,4.487783456495375,0.1372349134465659
-2.09709558117195e-05,4.495711021871646,0.1885009924361494
-2.09609558117195e-05,4.493398815303587,0.1225874623066794
-2.09509558117195e-05,4.537661055321055,0.1106031841013331
-2.09409558117195e-05,4.505950793815995,0.08164117843838109
-2.09309558117195e-05,4.501987011127859,0.1322414641943337
-2.09209558117195e-05,4.512887413520256,0.1269151183253004
-2.09109558117195e-05,4.567059110258054,0.158540296922742
-2.09009558117195e-05,4.504959848143961,0.135237533745673
-2.08909558117195e-05,4.535018533528985,0.1016149754473097
-2.08809558117195e-05,4.473910217086902,0.0939583532605538
-2.08709558117195e-05,4.456403510214313,0.1408967762315148
-2.08609558117195e-05,4.45772477111035,0.1382336032970123
-2.08509558117195e-05,4.532376011736896,0.1705245751281136
-2.08409558117195e-05,4.460697608126452,0.1438928457828754
-2.08309558117195e-05,4.502977956799867,0.1076071145499864
-2.08209558117195e-05,4.44715468394199,0.1032794585313871
-2.08109558117195e-05,4.468625173502722,0.1302440844934408
-2.08009558117195e-05,4.491416923959499,0.1355704303624884
-2.07909558117195e-05,4.560452805777816,0.1641995394086068
-2.07809558117195e-05,4.47919526067112,0.1362362235961321
-2.07709558117195e-05,4.522136239792546,0.1069413213163574
-2.07609558117195e-05,4.446494053493967,0.09895180251278596
-2.07509558117195e-05,4.440878694685783,0.142228362698791
-2.07409558117195e-05,4.456403510214298,0.126915118325293
-2.07309558117195e-05,4.498023228439724,0.1355704303624884
-2.07209558117195e-05,4.505620478591983,0.186836509352072
-2.07109558117195e-05,4.503308272023904,0.1215887724562384
-2.07009558117195e-05,4.545258305473316,0.1102702874845173
-2.06909558117195e-05,4.511235837400175,0.07964379873748823
-2.06809558117195e-05,4.527421283376727,0.1269151183252861
