Spa_defence_traces/all_correct.csv

#Digilent WaveForms Oscilloscope Acquisition
#Device Name: Discovery2
#Serial Number: SN:210321A364CE
#Date Time: 2026-05-11 13:50:31.045
#Sample rate: 1e+08Hz
#Samples: 8192
#Trigger: Source: Channel 2 Type: Edge Condition: Rising Level: 1.75 V Hyst.: Auto HoldOff: 0 s
#Channel 1: Range: 50 mV/div Offset: -4.525 V Sample Mode: Average
#Channel 2: Range: 500 mV/div Offset: 350 mV Sample Mode: Average
#Wavegen Channel 1: Running
#Mode: Simple
#Type: Square
#Frequency: 16 MHz
#Period: 62.5 ns
#Amplitude: 2.5 V
#Offset: 2.5 V
#Symmetry: 50 %
#Phase: 0 °

Time (s),Channel 1 (V),Channel 2 (V)
-2.39561563584405e-05,4.556819338313729,0.09995049236323239
-2.39461563584405e-05,4.499014174111758,0.08530304122335136
-2.39361563584405e-05,4.470937380070803,0.1392322931474569
-2.39261563584405e-05,4.476883054103001,0.1352375337456748
-2.39161563584405e-05,4.525439392032659,0.1671956089599589
-2.39061563584405e-05,4.477873999775038,0.1432270525492444
-2.38961563584405e-05,4.513548043968254,0.1099373908676967
-2.38861563584405e-05,4.486792510823354,0.08929780062514647
-2.38761563584405e-05,4.482828728135206,0.1365691202129349
-2.38661563584405e-05,4.493398815303567,0.1329072574279647
-2.38561563584405e-05,4.532376011736896,0.1648653326422505
-2.38461563584405e-05,4.486462195599345,0.1405638796147055
-2.38361563584405e-05,4.519163402776445,0.1072742179331729
-2.38261563584405e-05,4.494059445751589,0.08963069724195255
-2.38161563584405e-05,4.478204314999049,0.1375678100633813
-2.38061563584405e-05,4.483819673807258,0.1345717405120588
-2.37961563584405e-05,4.524118131136595,0.1715232649785433
-2.37861563584405e-05,4.482168097687183,0.1385664999138277
-2.37761563584405e-05,4.524448446360625,0.1209229792226075
-2.37661563584405e-05,4.532045696512847,0.1232532555402987
-2.37561563584405e-05,4.449466890510106,0.08563593784018392
-2.37461563584405e-05,4.515529935312322,0.1232532555403158
-2.37361563584405e-05,4.537991370545087,0.1279138081757325
-2.37261563584405e-05,4.597448110867115,0.1475547085678456
-2.37161563584405e-05,4.520814978896536,0.13157567096071
-2.37061563584405e-05,4.559131544881808,0.09895180251278596
-2.36961563584405e-05,4.502317326351871,0.08829911077469066
-2.36861563584405e-05,4.496371652319668,0.1295782912598099
-2.36761563584405e-05,4.514208674416293,0.1289124980261939
-2.36661563584405e-05,4.551203979505538,0.1618692630909112
-2.36561563584405e-05,4.507932685160062,0.1342388438952266
-2.36461563584405e-05,4.542615783681245,0.104611044998649
-2.36361563584405e-05,4.50958426128012,0.08297276490566392
-2.36261563584405e-05,4.514208674416275,0.128912498026158
-2.36161563584405e-05,4.532706326960907,0.1212558758394229
-2.36061563584405e-05,4.563755958017966,0.1618692630909112
-2.35961563584405e-05,4.522466555016571,0.1315756709606894
-2.35861563584405e-05,4.551203979505525,0.102280768680954
-2.35761563584405e-05,4.522136239792546,0.08397145475608947
-2.35661563584405e-05,4.524448446360625,0.1259164284748396
-2.35561563584405e-05,4.539642946665143,0.120590082605792
-2.35461563584405e-05,4.566398479810044,0.1625350563245231
-2.35361563584405e-05,4.518833087552434,0.1265822217084706
-2.35261563584405e-05,4.559131544881808,0.1142650468862979
-2.35161563584405e-05,4.558801229657797,0.1155966333535598
-2.35061563584405e-05,4.44913657528609,0.08563593784018227
-2.34961563584405e-05,4.520814978896501,0.1195913927553455
-2.34861563584405e-05,4.535348848752997,0.1285796014093634
-2.34761563584405e-05,4.594144958627002,0.1488862950351076
-2.34661563584405e-05,4.52114529412053,0.1315756709606877
-2.34561563584405e-05,4.560452805777853,0.09861890589597044
-2.34461563584405e-05,4.505950793815995,0.08397145475608947
-2.34361563584405e-05,4.503968902471927,0.1289124980261789
-2.34261563584405e-05,4.512226783072225,0.131575670960716
-2.34161563584405e-05,4.547240196817387,0.1608705732404514
-2.34061563584405e-05,4.506281109040006,0.1355704303624884
-2.33961563584405e-05,4.541624838009211,0.1036123551482026
-2.33861563584405e-05,4.50991457650413,0.0833056615224585
-2.33761563584405e-05,4.533366957408919,0.1209229792225904
-2.33661563584405e-05,4.542285468457234,0.1219216690730539
-2.33561563584405e-05,4.566728795034067,0.1595389867732029
-2.33461563584405e-05,4.537661055321076,0.1242519453907622
-2.33361563584405e-05,4.56639847981004,0.1006162855968545
-2.33261563584405e-05,4.531385066064862,0.08130828182156563
-2.33161563584405e-05,4.518833087552434,0.1259164284748396
-2.33061563584405e-05,4.499014174111758,0.1332401540447801
-2.32961563584405e-05,4.534357903080945,0.16819429881039
-2.32861563584405e-05,4.496041337095657,0.134571740512042
-2.32761563584405e-05,4.535679163977008,0.1189255995217146
-2.32661563584405e-05,4.541624838009211,0.1209229792226075
-2.32561563584405e-05,4.445503107821951,0.08696752430744981
-2.32461563584405e-05,4.485140934703267,0.1332401540447591
-2.32361563584405e-05,4.502317326351871,0.135237533745673
-2.32261563584405e-05,4.567719740706101,0.1552113307546016
-2.32161563584405e-05,4.497362597991702,0.1375678100633813
-2.32061563584405e-05,4.537330740097047,0.1049439416154794
-2.31961563584405e-05,4.488113771719386,0.08863200739150612
-2.31861563584405e-05,4.515529935312322,0.1259164284748396
-2.31761563584405e-05,4.537330740097064,0.1252506352412087
-2.31661563584405e-05,4.570692577722187,0.1558771239882187
-2.31561563584405e-05,4.52312718546458,0.1335730506615956
-2.31461563584405e-05,4.54922208816147,0.1022807686809407
-2.31361563584405e-05,4.515529935312322,0.08297276490564304
-2.31261563584405e-05,4.496041337095656,0.1332401540447795
-2.31161563584405e-05,4.494059445751589,0.1319085675775182
-2.31061563584405e-05,4.536009479201019,0.1658640224926969
-2.30961563584405e-05,4.493398815303567,0.1382336032970123
-2.30861563584405e-05,4.525109076808637,0.1046110449986418
-2.30761563584405e-05,4.501326380679847,0.08863200739151339
-2.30661563584405e-05,4.503638587247916,0.1289124980261789
-2.30561563584405e-05,4.523457500688592,0.1235861521571313
-2.30461563584405e-05,4.562434697121897,0.1651982292590516
-2.30361563584405e-05,4.509584261280143,0.13357305066161
-2.30261563584405e-05,4.545588620697346,0.1165953232040062
-2.30161563584405e-05,4.547570512041414,0.1175940130544527
-2.30061563584405e-05,4.432290498861483,0.09062938709239898
-2.29961563584405e-05,4.490095663063427,0.1292453946429768
-2.29861563584405e-05,4.508593315608085,0.1362362235961194
-2.29761563584405e-05,4.570692577722202,0.1525481578200778
-2.29661563584405e-05,4.499014174111758,0.1375678100633813
-2.29561563584405e-05,4.541294522785176,0.1049439416154568
-2.29461563584405e-05,4.48910471739142,0.0879662141578752
-2.29361563584405e-05,4.511235837400175,0.1279138081757325
-2.29261563584405e-05,4.532045696512885,0.1269151183252861
-2.29161563584405e-05,4.566728795034044,0.1572087104554828
-2.29061563584405e-05,4.516851196208389,0.1315756709607144
-2.28961563584405e-05,4.546909881593391,0.1039452517650181
-2.28861563584405e-05,4.512887413520231,0.08397145475608947
-2.28761563584405e-05,4.488113771719389,0.1369020168297483
-2.28661563584405e-05,4.494059445751587,0.1322414641943358
-2.28561563584405e-05,4.532706326960907,0.1661969191095124
-2.28461563584405e-05,4.49174723918351,0.1392322931474587
-2.28361563584405e-05,4.526100022480682,0.1062755280827264
-2.28261563584405e-05,4.502647641575892,0.08829911077469883
-2.28161563584405e-05,4.499344489335769,0.1325743608111492
-2.28061563584405e-05,4.52048466367249,0.1259164284748396
-2.27961563584405e-05,4.55714965353774,0.1655311258758815
-2.27861563584405e-05,4.509584261280135,0.1329072574279574
-2.27761563584405e-05,4.54393704457729,0.1169282198208217
-2.27661563584405e-05,4.548561457713448,0.1195913927553455
-2.27561563584405e-05,4.427666085725325,0.09229387017647639
-2.27461563584405e-05,4.492077554407528,0.1272480149421059
-2.27361563584405e-05,4.505290163367966,0.136902016829746
-2.27261563584405e-05,4.568710686378135,0.1542126409041552
-2.27161563584405e-05,4.495711021871646,0.1362362235961194
-2.27061563584405e-05,4.540633892337153,0.1072742179331642
-2.26961563584405e-05,4.48811377171941,0.08829911077469929
-2.26861563584405e-05,4.508593315608085,0.1279138081757325
-2.26761563584405e-05,4.532045696512885,0.1265822217084706
-2.26661563584405e-05,4.566728795034067,0.156875813838679
-2.26561563584405e-05,4.5201543484485,0.1339059472784215
-2.26461563584405e-05,4.550213033833504,0.1009491822136788
-2.26361563584405e-05,4.516851196208366,0.08397145475608947
-2.26261563584405e-05,4.507932685160062,0.1302440844934408
-2.26161563584405e-05,4.51354804396827,0.1255835318580426
-2.26061563584405e-05,4.548561457713448,0.1661969191095124
-2.25961563584405e-05,4.509584261280119,0.1342388438952266
-2.25861563584405e-05,4.540303577113166,0.1039452517650181
-2.25761563584405e-05,4.512557098296222,0.08596883445700111
-2.25661563584405e-05,4.51552993531232,0.1272480149420828
-2.25561563584405e-05,4.53336695740893,0.1215887724562384
-2.25461563584405e-05,4.566398479810056,0.1615363664740957
-2.25361563584405e-05,4.519493718000471,0.130244084493434
-2.25261563584405e-05,4.553516186073601,0.1152637367367512
-2.25161563584405e-05,4.554176816521639,0.1185927029048991
-2.25061563584405e-05,4.43922711856572,0.08996359385876807
-2.24961563584405e-05,4.494720076199612,0.128246704792548
-2.24861563584405e-05,4.513878359192256,0.1335730506615932
-2.24761563584405e-05,4.575977621306382,0.1552113307546016
-2.24661563584405e-05,4.503638587247916,0.1372349134465659
-2.24561563584405e-05,4.544927990249324,0.1039452517650181
-2.24461563584405e-05,4.492738184855559,0.08663462769062885
-2.24361563584405e-05,4.524778761584637,0.1209229792226075
-2.24261563584405e-05,4.546909881593391,0.127580911558917
-2.24161563584405e-05,4.573995729962315,0.1548784341377861
-2.24061563584405e-05,4.528081913824764,0.1305769811102422
-2.23961563584405e-05,4.558801229657797,0.09961759574641688
-2.23861563584405e-05,4.524448446360625,0.08230697167201206
-2.23761563584405e-05,4.529403174720795,0.1242519453907622
-2.23661563584405e-05,4.546909881593403,0.1185927029049179
-2.23561563584405e-05,4.571353208170213,0.1598718833899996
-2.23461563584405e-05,4.527751598600738,0.1279138081757325
-2.23361563584405e-05,4.556158707865706,0.09995049236323239
-2.23261563584405e-05,4.526100022480682,0.08263986828882752
-2.23161563584405e-05,4.49901417411177,0.1312427743438652
-2.23061563584405e-05,4.513217728744243,0.1259164284748396
-2.22961563584405e-05,4.543606729353279,0.1681942988104053
-2.22861563584405e-05,4.501326380679837,0.1329072574279647
-2.22761563584405e-05,4.544597675025314,0.116262426587193
-2.22661563584405e-05,4.548231142489437,0.1212558758394229
-2.22561563584405e-05,4.462679499470519,0.0803095919711192
-2.22461563584405e-05,4.513217728744243,0.1265822217084706
-2.22361563584405e-05,4.529733489944833,0.1305769811102646
-2.22261563584405e-05,4.590181175938866,0.1488862950351076
-2.22161563584405e-05,4.517511826656389,0.1319085675775182
-2.22061563584405e-05,4.558140599209774,0.1012820788304943
-2.21961563584405e-05,4.504959848143965,0.08563593784018514
-2.21861563584405e-05,4.514538989640283,0.1259164284748213
-2.21761563584405e-05,4.532376011736896,0.1262493250916551
-2.21661563584405e-05,4.567719740706101,0.15754160707231
-2.21561563584405e-05,4.518502772328422,0.1325743608111492
-2.21461563584405e-05,4.548891772937445,0.1019478720641392
-2.21361563584405e-05,4.513878359192265,0.08397145475608947
-2.21261563584405e-05,4.460367292902441,0.1425612593156135
-2.21161563584405e-05,4.448475944838035,0.1408967762315361
-2.21061563584405e-05,4.500335435007779,0.174519334529884
-2.20961563584405e-05,4.452109412302159,0.1508836747360004
-2.20861563584405e-05,4.490095663063454,0.1135992536526669
-2.20761563584405e-05,4.47324958663888,0.09462414649418471
-2.20661563584405e-05,4.46763422783069,0.138899396530643
-2.20561563584405e-05,4.472258640966846,0.1382336032970123
-2.20461563584405e-05,4.52312718546458,0.1701916785112981
-2.20361563584405e-05,4.467964543054699,0.1448915356333219
-2.20261563584405e-05,4.505620478591987,0.1249177386243949
-2.20161563584405e-05,4.513217728744239,0.1285796014093618
-2.20061563584405e-05,4.386706997947929,0.1039452517650181
-2.19961563584405e-05,4.435263335877584,0.1412296728483516
-2.19861563584405e-05,4.45475193409428,0.1502178815023755
-2.19761563584405e-05,4.52345750068856,0.1635337461749826
-2.19661563584405e-05,4.461688553798485,0.1445586390165063
-2.19561563584405e-05,4.502977956799893,0.1169282198208217
-2.19461563584405e-05,4.455742879766283,0.09728731942870855
-2.19361563584405e-05,4.491747239183495,0.1309098777270565
-2.19261563584405e-05,4.50727205471204,0.134571740512042
-2.19161563584405e-05,4.548561457713448,0.1598718833900183
-2.19061563584405e-05,4.501987011127859,0.1365691202129349
-2.18961563584405e-05,4.535348848752983,0.1049439416154565
-2.18861563584405e-05,4.505290163367972,0.08730042092424423
-2.18761563584405e-05,4.49174723918351,0.1329072574279647
-2.18661563584405e-05,4.489765347839443,0.1335730506615956
-2.18561563584405e-05,4.528742544272754,0.1688600920440226
-2.18461563584405e-05,4.489765347839461,0.1388993965306569
-2.18361563584405e-05,4.521145294120513,0.105942631465911
-2.18261563584405e-05,4.497692913215714,0.08863200739150612
-2.18161563584405e-05,4.514538989640293,0.1272480149421003
-2.18061563584405e-05,4.525769707256665,0.1245848420075789
-2.17961563584405e-05,4.557810283985763,0.1635337461749886
-2.17861563584405e-05,4.521145294120513,0.1285796014093634
-2.17761563584405e-05,4.559461860105819,0.1145979435031134
-2.17661563584405e-05,4.556489023089719,0.1159295299703747
-2.17561563584405e-05,4.459706662454418,0.08463724798972039
-2.17461563584405e-05,4.504629532919949,0.1279138081757325
-2.17361563584405e-05,4.521145294120513,0.1315756709607027
-2.17261563584405e-05,4.582914241010586,0.1505507781191772
-2.17161563584405e-05,4.511235837400175,0.1335730506615956
-2.17061563584405e-05,4.551864609953561,0.1009491822136788
-2.16961563584405e-05,4.500996065455825,0.08563593784016682
-2.16861563584405e-05,4.527751598600745,0.1209229792226091
-2.16761563584405e-05,4.543937044577283,0.124584842007576
-2.16661563584405e-05,4.575647306082371,0.1542126409041552
-2.16561563584405e-05,4.529072859496783,0.1285796014093634
-2.16461563584405e-05,4.560122490553825,0.09928469912959278
-2.16361563584405e-05,4.523457500688608,0.08030959197112783
-2.16261563584405e-05,4.491416923959499,0.1339059472784111
-2.16161563584405e-05,4.482828728135206,0.1355704303624884
-2.16061563584405e-05,4.52576970725667,0.1671956089599589
-2.15961563584405e-05,4.48414998903127,0.1405638796147327
-2.15861563584405e-05,4.51519962008831,0.1086058044004348
-2.15761563584405e-05,4.495050391423623,0.08829911077469066
-2.15661563584405e-05,4.494389760975601,0.1309098777270718
-2.15561563584405e-05,4.503308272023923,0.1302440844934564
-2.15461563584405e-05,4.545258305473335,0.164532436025435
-2.15361563584405e-05,4.497692913215714,0.135903326979304
-2.15261563584405e-05,4.537661055321076,0.1162624265871908
-2.15161563584405e-05,4.538982316217067,0.1195913927553336
-2.15061563584405e-05,4.420399150797132,0.09329256002693478
-2.14961563584405e-05,4.482498412911195,0.1289124980261789
-2.14861563584405e-05,4.507602369936051,0.135903326979304
-2.14761563584405e-05,4.570362262498159,0.1548784341377781
-2.14661563584405e-05,4.497362597991735,0.1372349134465739
-2.14561563584405e-05,4.53865200099311,0.10527683823228
-2.14461563584405e-05,4.488774402167409,0.0879662141578752
-2.14361563584405e-05,4.520154348448479,0.1229203589235003
-2.14261563584405e-05,4.533366957408924,0.1272480149420996
-2.14161563584405e-05,4.561774066673898,0.1558771239882326
-2.14061563584405e-05,4.524118131136614,0.1302440844934408
-2.13961563584405e-05,4.554837446969661,0.09961759574641688
-2.13861563584405e-05,4.520484663672476,0.08130828182159031
-2.13761563584405e-05,4.488444086943398,0.1355704303624884
-2.13661563584405e-05,4.501656695903848,0.1272480149421015
-2.13561563584405e-05,4.536339794425031,0.1678614021935898
-2.13461563584405e-05,4.496701967543696,0.1365691202129205
-2.13361563584405e-05,4.531385066064862,0.1049439416154646
-2.13261563584405e-05,4.504299217695938,0.08696752430742877
-2.13161563584405e-05,4.520154348448479,0.1239190487739468
-2.13061563584405e-05,4.530724435616852,0.1215887724562572
-2.12961563584405e-05,4.558801229657784,0.1628679529413388
-2.12861563584405e-05,4.522136239792546,0.1272480149421015
-2.12761563584405e-05,4.560122490553842,0.1109360807181431
-2.12661563584405e-05,4.560452805777853,0.1172611164376372
-2.12561563584405e-05,4.471598010518864,0.0799766953543207
-2.12461563584405e-05,4.519493718000456,0.1229203589235003
-2.12361563584405e-05,4.535348848752997,0.1272480149421015
-2.12261563584405e-05,4.596126849971069,0.1485533984182921
-2.12161563584405e-05,4.522466555016591,0.1315756709607104
-2.12061563584405e-05,4.560452805777853,0.09795311266233953
-2.11961563584405e-05,4.50727205471204,0.08430435137290493
-2.11861563584405e-05,4.530063805168817,0.1195913927553455
-2.11761563584405e-05,4.546579566369394,0.1245848420075904
-2.11661563584405e-05,4.576307936530394,0.1525481578200778
-2.11561563584405e-05,4.534357903080963,0.1295782912598099
-2.11461563584405e-05,4.55979217532983,0.09928469912960142
-2.11361563584405e-05,4.526430337704673,0.08064248858796069
-2.11261563584405e-05,4.48117715201517,0.1379007066801708
-2.11161563584405e-05,4.468955488726733,0.1375678100633813
-2.11061563584405e-05,4.516851196208366,0.1681942988104053
-2.10961563584405e-05,4.472919271414868,0.1448915356333219
-2.10861563584405e-05,4.507932685160046,0.1076071145500053
-2.10761563584405e-05,4.486131880375319,0.09062938709239898
-2.10661563584405e-05,4.485801565151307,0.1342388438952266
-2.10561563584405e-05,4.491416923959499,0.1329072574279647
-2.10461563584405e-05,4.53633979442501,0.1665298157263126
-2.10361563584405e-05,4.485801565151307,0.1388993965306433
-2.10261563584405e-05,4.527090968152716,0.1179269096712682
-2.10161563584405e-05,4.53336695740893,0.1242519453907622
-2.10061563584405e-05,4.395295193772244,0.1006162855968807
-2.09961563584405e-05,4.445503107821933,0.1388993965306433
-2.09861563584405e-05,4.463670445142553,0.1458902254837683
-2.09761563584405e-05,4.532376011736896,0.1635337461749886
-2.09661563584405e-05,4.466312966934662,0.142894155932416
-2.09561563584405e-05,4.509253946056088,0.1142650468863109
-2.09461563584405e-05,4.460036977678429,0.09495704311100023
-2.09361563584405e-05,4.473579901862891,0.135237533745673
-2.09261563584405e-05,4.494059445751611,0.1372349134465775
-2.09161563584405e-05,4.540303577113145,0.1628679529413459
-2.09061563584405e-05,4.48646219559933,0.142228362698798
-2.08961563584405e-05,4.519824033224467,0.1069413213163574
-2.08861563584405e-05,4.492077554407522,0.08829911077469066
-2.08761563584405e-05,4.456733825438333,0.1442257423996655
-2.08661563584405e-05,4.442860586029844,0.1458902254837683
-2.08561563584405e-05,4.492407869631533,0.1751851277635303
-2.08461563584405e-05,4.44715468394199,0.1518823645864469
-2.08361563584405e-05,4.485471249927288,0.1122676671853982
-2.08261563584405e-05,4.467964543054699,0.09728731942870855
-2.08161563584405e-05,4.464991706038598,0.1385664999138277
-2.08061563584405e-05,4.474570847534925,0.1379007066801968
-2.07961563584405e-05,4.52411813113659,0.1695258852776556
-2.07861563584405e-05,4.470607064846813,0.1438928457828871
-2.07761563584405e-05,4.511235837400175,0.1229203589235003
-2.07661563584405e-05,4.520154348448479,0.1255835318580241
-2.07561563584405e-05,4.396946769892306,0.09961759574643307
-2.07461563584405e-05,4.459376347230378,0.1352375337456568
-2.07361563584405e-05,4.483159043359217,0.1418954660819826
-2.07261563584405e-05,4.548561457713448,0.1592060901563873
-2.07161563584405e-05,4.47853463022306,0.1405638796147206
-2.07061563584405e-05,4.522796870240549,0.1099373908677106
-2.06961563584405e-05,4.474240532310914,0.09062938709239898
-2.06861563584405e-05,4.503308272023904,0.1272480149421015
-2.06761563584405e-05,4.518833087552434,0.1305769811102563
